^D:\PROJECT\SRC\MSVSCPP\LIBCAES\RELEASE\LIBCAES_CONTEXT.OBJ|D:\PROJECT\SRC\MSVSCPP\LIBCAES\RELEASE\LIBCAES_CRYPT.OBJ|D:\PROJECT\SRC\MSVSCPP\LIBCAES\RELEASE\LIBCAES_ERROR.OBJ|D:\PROJECT\SRC\MSVSCPP\LIBCAES\RELEASE\LIBCAES_KEY.OBJ|D:\PROJECT\SRC\MSVSCPP\LIBCAES\RELEASE\LIBCAES_SUPPORT.OBJ|D:\PROJECT\SRC\MSVSCPP\LIBCAES\RELEASE\LIBCAES_TWEAKED_CONTEXT.OBJ
C:\WINDOWS\SYSTEM32\TZRES.DLL
D:\PROJECT\SRC\MSVSCPP\LIBCAES\RELEASE\LIBCAES_CONTEXT.OBJ
D:\PROJECT\SRC\MSVSCPP\LIBCAES\RELEASE\LIBCAES_CRYPT.OBJ
D:\PROJECT\SRC\MSVSCPP\LIBCAES\RELEASE\LIBCAES_ERROR.OBJ
D:\PROJECT\SRC\MSVSCPP\LIBCAES\RELEASE\LIBCAES_KEY.OBJ
D:\PROJECT\SRC\MSVSCPP\LIBCAES\RELEASE\LIBCAES_SUPPORT.OBJ
D:\PROJECT\SRC\MSVSCPP\LIBCAES\RELEASE\LIBCAES_TWEAKED_CONTEXT.OBJ
C:\WINDOWS\GLOBALIZATION\SORTING\SORTDEFAULT.NLS
