^D:\PROJECT\SRC\LIBCPATH\LIBCPATH_ERROR.C
/c /I..\..\include /I..\..\common /I..\..\libcstring /I..\..\libcerror /I..\..\libclocale /I..\..\libcsplit /I..\..\libuna /Zi /nologo /W4 /WX- /O2 /Oy- /D _CRT_SECURE_NO_DEPRECATE /D HAVE_LOCAL_LIBCSTRING /D HAVE_LOCAL_LIBCERROR /D HAVE_LOCAL_LIBCLOCALE /D HAVE_LOCAL_LIBCSPLIT /D HAVE_LOCAL_LIBUNA /D HAVE_LOCAL_LIBCPATH /D _UNICODE /D UNICODE /Gm- /EHsc /MT /GS /fp:precise /Zc:wchar_t /Zc:forScope /Fo"RELEASE\\" /Fd"RELEASE\VC120.PDB" /Gd /TC /analyze- D:\PROJECT\SRC\LIBCPATH\LIBCPATH_ERROR.C
^D:\PROJECT\SRC\LIBCPATH\LIBCPATH_PATH.C
/c /I..\..\include /I..\..\common /I..\..\libcstring /I..\..\libcerror /I..\..\libclocale /I..\..\libcsplit /I..\..\libuna /Zi /nologo /W4 /WX- /O2 /Oy- /D _CRT_SECURE_NO_DEPRECATE /D HAVE_LOCAL_LIBCSTRING /D HAVE_LOCAL_LIBCERROR /D HAVE_LOCAL_LIBCLOCALE /D HAVE_LOCAL_LIBCSPLIT /D HAVE_LOCAL_LIBUNA /D HAVE_LOCAL_LIBCPATH /D _UNICODE /D UNICODE /Gm- /EHsc /MT /GS /fp:precise /Zc:wchar_t /Zc:forScope /Fo"RELEASE\\" /Fd"RELEASE\VC120.PDB" /Gd /TC /analyze- D:\PROJECT\SRC\LIBCPATH\LIBCPATH_PATH.C
^D:\PROJECT\SRC\LIBCPATH\LIBCPATH_SUPPORT.C
/c /I..\..\include /I..\..\common /I..\..\libcstring /I..\..\libcerror /I..\..\libclocale /I..\..\libcsplit /I..\..\libuna /Zi /nologo /W4 /WX- /O2 /Oy- /D _CRT_SECURE_NO_DEPRECATE /D HAVE_LOCAL_LIBCSTRING /D HAVE_LOCAL_LIBCERROR /D HAVE_LOCAL_LIBCLOCALE /D HAVE_LOCAL_LIBCSPLIT /D HAVE_LOCAL_LIBUNA /D HAVE_LOCAL_LIBCPATH /D _UNICODE /D UNICODE /Gm- /EHsc /MT /GS /fp:precise /Zc:wchar_t /Zc:forScope /Fo"RELEASE\\" /Fd"RELEASE\VC120.PDB" /Gd /TC /analyze- D:\PROJECT\SRC\LIBCPATH\LIBCPATH_SUPPORT.C
