^D:\PROJECT\SRC\LIBCPATH\LIBCPATH_ERROR.C|D:\PROJECT\SRC\LIBCPATH\LIBCPATH_PATH.C|D:\PROJECT\SRC\LIBCPATH\LIBCPATH_SUPPORT.C
D:\PROJECT\SRC\MSVSCPP\LIBCPATH\RELEASE\VC120.PDB
D:\PROJECT\SRC\MSVSCPP\LIBCPATH\RELEASE\LIBCPATH_SUPPORT.OBJ
D:\PROJECT\SRC\MSVSCPP\LIBCPATH\RELEASE\LIBCPATH_PATH.OBJ
D:\PROJECT\SRC\MSVSCPP\LIBCPATH\RELEASE\LIBCPATH_ERROR.OBJ
^D:\PROJECT\SRC\LIBCPATH\LIBCPATH_ERROR.C
D:\PROJECT\SRC\MSVSCPP\LIBCPATH\RELEASE\VC120.PDB
^D:\PROJECT\SRC\LIBCPATH\LIBCPATH_PATH.C
D:\PROJECT\SRC\MSVSCPP\LIBCPATH\RELEASE\VC120.PDB
^D:\PROJECT\SRC\LIBCPATH\LIBCPATH_SUPPORT.C
D:\PROJECT\SRC\MSVSCPP\LIBCPATH\RELEASE\VC120.PDB
