^D:\PROJECT\SRC\MSVSCPP\LIBCSPLIT\RELEASE\LIBCSPLIT_ERROR.OBJ|D:\PROJECT\SRC\MSVSCPP\LIBCSPLIT\RELEASE\LIBCSPLIT_NARROW_SPLIT_STRING.OBJ|D:\PROJECT\SRC\MSVSCPP\LIBCSPLIT\RELEASE\LIBCSPLIT_NARROW_STRING.OBJ|D:\PROJECT\SRC\MSVSCPP\LIBCSPLIT\RELEASE\LIBCSPLIT_SUPPORT.OBJ|D:\PROJECT\SRC\MSVSCPP\LIBCSPLIT\RELEASE\LIBCSPLIT_WIDE_SPLIT_STRING.OBJ|D:\PROJECT\SRC\MSVSCPP\LIBCSPLIT\RELEASE\LIBCSPLIT_WIDE_STRING.OBJ
C:\WINDOWS\SYSTEM32\TZRES.DLL
D:\PROJECT\SRC\MSVSCPP\LIBCSPLIT\RELEASE\LIBCSPLIT_ERROR.OBJ
D:\PROJECT\SRC\MSVSCPP\LIBCSPLIT\RELEASE\LIBCSPLIT_NARROW_SPLIT_STRING.OBJ
D:\PROJECT\SRC\MSVSCPP\LIBCSPLIT\RELEASE\LIBCSPLIT_NARROW_STRING.OBJ
D:\PROJECT\SRC\MSVSCPP\LIBCSPLIT\RELEASE\LIBCSPLIT_SUPPORT.OBJ
D:\PROJECT\SRC\MSVSCPP\LIBCSPLIT\RELEASE\LIBCSPLIT_WIDE_SPLIT_STRING.OBJ
D:\PROJECT\SRC\MSVSCPP\LIBCSPLIT\RELEASE\LIBCSPLIT_WIDE_STRING.OBJ
C:\WINDOWS\GLOBALIZATION\SORTING\SORTDEFAULT.NLS
