^D:\PROJECT\SRC\LIBCLOCALE\LIBCLOCALE_CODEPAGE.C|D:\PROJECT\SRC\LIBCLOCALE\LIBCLOCALE_LOCALE.C|D:\PROJECT\SRC\LIBCLOCALE\LIBCLOCALE_SUPPORT.C
D:\PROJECT\SRC\MSVSCPP\LIBCLOCALE\RELEASE\VC120.PDB
D:\PROJECT\SRC\MSVSCPP\LIBCLOCALE\RELEASE\LIBCLOCALE_SUPPORT.OBJ
D:\PROJECT\SRC\MSVSCPP\LIBCLOCALE\RELEASE\LIBCLOCALE_LOCALE.OBJ
D:\PROJECT\SRC\MSVSCPP\LIBCLOCALE\RELEASE\LIBCLOCALE_CODEPAGE.OBJ
^D:\PROJECT\SRC\LIBCLOCALE\LIBCLOCALE_CODEPAGE.C
D:\PROJECT\SRC\MSVSCPP\LIBCLOCALE\RELEASE\VC120.PDB
^D:\PROJECT\SRC\LIBCLOCALE\LIBCLOCALE_LOCALE.C
D:\PROJECT\SRC\MSVSCPP\LIBCLOCALE\RELEASE\VC120.PDB
^D:\PROJECT\SRC\LIBCLOCALE\LIBCLOCALE_SUPPORT.C
D:\PROJECT\SRC\MSVSCPP\LIBCLOCALE\RELEASE\VC120.PDB
