^D:\PROJECT\SRC\LIBFVALUE\LIBFVALUE_BINARY_DATA.C|D:\PROJECT\SRC\LIBFVALUE\LIBFVALUE_DATA_HANDLE.C|D:\PROJECT\SRC\LIBFVALUE\LIBFVALUE_ERROR.C|D:\PROJECT\SRC\LIBFVALUE\LIBFVALUE_FILETIME.C|D:\PROJECT\SRC\LIBFVALUE\LIBFVALUE_FLOATING_POINT.C|D:\PROJECT\SRC\LIBFVALUE\LIBFVALUE_INTEGER.C|D:\PROJECT\SRC\LIBFVALUE\LIBFVALUE_SPLIT_STRING.C|D:\PROJECT\SRC\LIBFVALUE\LIBFVALUE_STRING.C|D:\PROJECT\SRC\LIBFVALUE\LIBFVALUE_SUPPORT.C|D:\PROJECT\SRC\LIBFVALUE\LIBFVALUE_TABLE.C|D:\PROJECT\SRC\LIBFVALUE\LIBFVALUE_VALUE.C|D:\PROJECT\SRC\LIBFVALUE\LIBFVALUE_VALUE_ENTRY.C|D:\PROJECT\SRC\LIBFVALUE\LIBFVALUE_VALUE_TYPE.C
D:\PROJECT\SRC\MSVSCPP\LIBFVALUE\RELEASE\VC120.PDB
D:\PROJECT\SRC\MSVSCPP\LIBFVALUE\RELEASE\LIBFVALUE_VALUE_TYPE.OBJ
D:\PROJECT\SRC\MSVSCPP\LIBFVALUE\RELEASE\LIBFVALUE_VALUE_ENTRY.OBJ
D:\PROJECT\SRC\MSVSCPP\LIBFVALUE\RELEASE\LIBFVALUE_VALUE.OBJ
D:\PROJECT\SRC\MSVSCPP\LIBFVALUE\RELEASE\LIBFVALUE_TABLE.OBJ
D:\PROJECT\SRC\MSVSCPP\LIBFVALUE\RELEASE\LIBFVALUE_SUPPORT.OBJ
D:\PROJECT\SRC\MSVSCPP\LIBFVALUE\RELEASE\LIBFVALUE_STRING.OBJ
D:\PROJECT\SRC\MSVSCPP\LIBFVALUE\RELEASE\LIBFVALUE_SPLIT_STRING.OBJ
D:\PROJECT\SRC\MSVSCPP\LIBFVALUE\RELEASE\LIBFVALUE_INTEGER.OBJ
D:\PROJECT\SRC\MSVSCPP\LIBFVALUE\RELEASE\LIBFVALUE_FLOATING_POINT.OBJ
D:\PROJECT\SRC\MSVSCPP\LIBFVALUE\RELEASE\LIBFVALUE_FILETIME.OBJ
D:\PROJECT\SRC\MSVSCPP\LIBFVALUE\RELEASE\LIBFVALUE_ERROR.OBJ
D:\PROJECT\SRC\MSVSCPP\LIBFVALUE\RELEASE\LIBFVALUE_DATA_HANDLE.OBJ
D:\PROJECT\SRC\MSVSCPP\LIBFVALUE\RELEASE\LIBFVALUE_BINARY_DATA.OBJ
^D:\PROJECT\SRC\LIBFVALUE\LIBFVALUE_BINARY_DATA.C
D:\PROJECT\SRC\MSVSCPP\LIBFVALUE\RELEASE\VC120.PDB
^D:\PROJECT\SRC\LIBFVALUE\LIBFVALUE_DATA_HANDLE.C
D:\PROJECT\SRC\MSVSCPP\LIBFVALUE\RELEASE\VC120.PDB
^D:\PROJECT\SRC\LIBFVALUE\LIBFVALUE_ERROR.C
D:\PROJECT\SRC\MSVSCPP\LIBFVALUE\RELEASE\VC120.PDB
^D:\PROJECT\SRC\LIBFVALUE\LIBFVALUE_FILETIME.C
D:\PROJECT\SRC\MSVSCPP\LIBFVALUE\RELEASE\VC120.PDB
^D:\PROJECT\SRC\LIBFVALUE\LIBFVALUE_FLOATING_POINT.C
D:\PROJECT\SRC\MSVSCPP\LIBFVALUE\RELEASE\VC120.PDB
^D:\PROJECT\SRC\LIBFVALUE\LIBFVALUE_INTEGER.C
D:\PROJECT\SRC\MSVSCPP\LIBFVALUE\RELEASE\VC120.PDB
^D:\PROJECT\SRC\LIBFVALUE\LIBFVALUE_SPLIT_STRING.C
D:\PROJECT\SRC\MSVSCPP\LIBFVALUE\RELEASE\VC120.PDB
^D:\PROJECT\SRC\LIBFVALUE\LIBFVALUE_STRING.C
D:\PROJECT\SRC\MSVSCPP\LIBFVALUE\RELEASE\VC120.PDB
^D:\PROJECT\SRC\LIBFVALUE\LIBFVALUE_SUPPORT.C
D:\PROJECT\SRC\MSVSCPP\LIBFVALUE\RELEASE\VC120.PDB
^D:\PROJECT\SRC\LIBFVALUE\LIBFVALUE_TABLE.C
D:\PROJECT\SRC\MSVSCPP\LIBFVALUE\RELEASE\VC120.PDB
^D:\PROJECT\SRC\LIBFVALUE\LIBFVALUE_VALUE.C
D:\PROJECT\SRC\MSVSCPP\LIBFVALUE\RELEASE\VC120.PDB
^D:\PROJECT\SRC\LIBFVALUE\LIBFVALUE_VALUE_ENTRY.C
D:\PROJECT\SRC\MSVSCPP\LIBFVALUE\RELEASE\VC120.PDB
^D:\PROJECT\SRC\LIBFVALUE\LIBFVALUE_VALUE_TYPE.C
D:\PROJECT\SRC\MSVSCPP\LIBFVALUE\RELEASE\VC120.PDB
