^D:\PROJECT\SRC\MSVSCPP\LIBFVALUE\RELEASE\LIBFVALUE_BINARY_DATA.OBJ|D:\PROJECT\SRC\MSVSCPP\LIBFVALUE\RELEASE\LIBFVALUE_DATA_HANDLE.OBJ|D:\PROJECT\SRC\MSVSCPP\LIBFVALUE\RELEASE\LIBFVALUE_ERROR.OBJ|D:\PROJECT\SRC\MSVSCPP\LIBFVALUE\RELEASE\LIBFVALUE_FILETIME.OBJ|D:\PROJECT\SRC\MSVSCPP\LIBFVALUE\RELEASE\LIBFVALUE_FLOATING_POINT.OBJ|D:\PROJECT\SRC\MSVSCPP\LIBFVALUE\RELEASE\LIBFVALUE_INTEGER.OBJ|D:\PROJECT\SRC\MSVSCPP\LIBFVALUE\RELEASE\LIBFVALUE_SPLIT_STRING.OBJ|D:\PROJECT\SRC\MSVSCPP\LIBFVALUE\RELEASE\LIBFVALUE_STRING.OBJ|D:\PROJECT\SRC\MSVSCPP\LIBFVALUE\RELEASE\LIBFVALUE_SUPPORT.OBJ|D:\PROJECT\SRC\MSVSCPP\LIBFVALUE\RELEASE\LIBFVALUE_TABLE.OBJ|D:\PROJECT\SRC\MSVSCPP\LIBFVALUE\RELEASE\LIBFVALUE_VALUE.OBJ|D:\PROJECT\SRC\MSVSCPP\LIBFVALUE\RELEASE\LIBFVALUE_VALUE_ENTRY.OBJ|D:\PROJECT\SRC\MSVSCPP\LIBFVALUE\RELEASE\LIBFVALUE_VALUE_TYPE.OBJ
C:\WINDOWS\SYSTEM32\TZRES.DLL
D:\PROJECT\SRC\MSVSCPP\LIBFVALUE\RELEASE\LIBFVALUE_BINARY_DATA.OBJ
D:\PROJECT\SRC\MSVSCPP\LIBFVALUE\RELEASE\LIBFVALUE_DATA_HANDLE.OBJ
D:\PROJECT\SRC\MSVSCPP\LIBFVALUE\RELEASE\LIBFVALUE_ERROR.OBJ
D:\PROJECT\SRC\MSVSCPP\LIBFVALUE\RELEASE\LIBFVALUE_FILETIME.OBJ
D:\PROJECT\SRC\MSVSCPP\LIBFVALUE\RELEASE\LIBFVALUE_FLOATING_POINT.OBJ
D:\PROJECT\SRC\MSVSCPP\LIBFVALUE\RELEASE\LIBFVALUE_INTEGER.OBJ
D:\PROJECT\SRC\MSVSCPP\LIBFVALUE\RELEASE\LIBFVALUE_SPLIT_STRING.OBJ
D:\PROJECT\SRC\MSVSCPP\LIBFVALUE\RELEASE\LIBFVALUE_STRING.OBJ
D:\PROJECT\SRC\MSVSCPP\LIBFVALUE\RELEASE\LIBFVALUE_SUPPORT.OBJ
D:\PROJECT\SRC\MSVSCPP\LIBFVALUE\RELEASE\LIBFVALUE_TABLE.OBJ
D:\PROJECT\SRC\MSVSCPP\LIBFVALUE\RELEASE\LIBFVALUE_VALUE.OBJ
D:\PROJECT\SRC\MSVSCPP\LIBFVALUE\RELEASE\LIBFVALUE_VALUE_ENTRY.OBJ
D:\PROJECT\SRC\MSVSCPP\LIBFVALUE\RELEASE\LIBFVALUE_VALUE_TYPE.OBJ
C:\WINDOWS\GLOBALIZATION\SORTING\SORTDEFAULT.NLS
