^D:\PROJECT\SRC\LIBCSTRING\LIBCSTRING_SUPPORT.C|D:\PROJECT\SRC\LIBCSTRING\LIBCSTRING_WIDE_STRING.C
D:\PROJECT\SRC\MSVSCPP\LIBCSTRING\RELEASE\VC120.PDB
D:\PROJECT\SRC\MSVSCPP\LIBCSTRING\RELEASE\LIBCSTRING_WIDE_STRING.OBJ
D:\PROJECT\SRC\MSVSCPP\LIBCSTRING\RELEASE\LIBCSTRING_SUPPORT.OBJ
^D:\PROJECT\SRC\LIBCSTRING\LIBCSTRING_SUPPORT.C
D:\PROJECT\SRC\MSVSCPP\LIBCSTRING\RELEASE\VC120.PDB
^D:\PROJECT\SRC\LIBCSTRING\LIBCSTRING_WIDE_STRING.C
D:\PROJECT\SRC\MSVSCPP\LIBCSTRING\RELEASE\VC120.PDB
