^D:\PROJECT\SRC\MSVSCPP\LIBCSTRING\RELEASE\LIBCSTRING_SUPPORT.OBJ|D:\PROJECT\SRC\MSVSCPP\LIBCSTRING\RELEASE\LIBCSTRING_WIDE_STRING.OBJ
C:\WINDOWS\SYSTEM32\TZRES.DLL
D:\PROJECT\SRC\MSVSCPP\LIBCSTRING\RELEASE\LIBCSTRING_SUPPORT.OBJ
D:\PROJECT\SRC\MSVSCPP\LIBCSTRING\RELEASE\LIBCSTRING_WIDE_STRING.OBJ
C:\WINDOWS\GLOBALIZATION\SORTING\SORTDEFAULT.NLS
