^D:\PROJECT\SRC\LIBFGUID\LIBFGUID_ERROR.C|D:\PROJECT\SRC\LIBFGUID\LIBFGUID_IDENTIFIER.C|D:\PROJECT\SRC\LIBFGUID\LIBFGUID_SUPPORT.C
D:\PROJECT\SRC\MSVSCPP\LIBFGUID\RELEASE\VC120.PDB
D:\PROJECT\SRC\MSVSCPP\LIBFGUID\RELEASE\LIBFGUID_SUPPORT.OBJ
D:\PROJECT\SRC\MSVSCPP\LIBFGUID\RELEASE\LIBFGUID_IDENTIFIER.OBJ
D:\PROJECT\SRC\MSVSCPP\LIBFGUID\RELEASE\LIBFGUID_ERROR.OBJ
^D:\PROJECT\SRC\LIBFGUID\LIBFGUID_ERROR.C
D:\PROJECT\SRC\MSVSCPP\LIBFGUID\RELEASE\VC120.PDB
^D:\PROJECT\SRC\LIBFGUID\LIBFGUID_IDENTIFIER.C
D:\PROJECT\SRC\MSVSCPP\LIBFGUID\RELEASE\VC120.PDB
^D:\PROJECT\SRC\LIBFGUID\LIBFGUID_SUPPORT.C
D:\PROJECT\SRC\MSVSCPP\LIBFGUID\RELEASE\VC120.PDB
