^D:\PROJECT\SRC\LIBBFIO\LIBBFIO_ERROR.C|D:\PROJECT\SRC\LIBBFIO\LIBBFIO_FILE.C|D:\PROJECT\SRC\LIBBFIO\LIBBFIO_FILE_POOL.C|D:\PROJECT\SRC\LIBBFIO\LIBBFIO_FILE_RANGE.C|D:\PROJECT\SRC\LIBBFIO\LIBBFIO_HANDLE.C|D:\PROJECT\SRC\LIBBFIO\LIBBFIO_MEMORY_RANGE.C|D:\PROJECT\SRC\LIBBFIO\LIBBFIO_POOL.C|D:\PROJECT\SRC\LIBBFIO\LIBBFIO_SUPPORT.C
D:\PROJECT\SRC\MSVSCPP\LIBBFIO\RELEASE\VC120.PDB
D:\PROJECT\SRC\MSVSCPP\LIBBFIO\RELEASE\LIBBFIO_SUPPORT.OBJ
D:\PROJECT\SRC\MSVSCPP\LIBBFIO\RELEASE\LIBBFIO_POOL.OBJ
D:\PROJECT\SRC\MSVSCPP\LIBBFIO\RELEASE\LIBBFIO_MEMORY_RANGE.OBJ
D:\PROJECT\SRC\MSVSCPP\LIBBFIO\RELEASE\LIBBFIO_HANDLE.OBJ
D:\PROJECT\SRC\MSVSCPP\LIBBFIO\RELEASE\LIBBFIO_FILE_RANGE.OBJ
D:\PROJECT\SRC\MSVSCPP\LIBBFIO\RELEASE\LIBBFIO_FILE_POOL.OBJ
D:\PROJECT\SRC\MSVSCPP\LIBBFIO\RELEASE\LIBBFIO_FILE.OBJ
D:\PROJECT\SRC\MSVSCPP\LIBBFIO\RELEASE\LIBBFIO_ERROR.OBJ
^D:\PROJECT\SRC\LIBBFIO\LIBBFIO_ERROR.C
D:\PROJECT\SRC\MSVSCPP\LIBBFIO\RELEASE\VC120.PDB
^D:\PROJECT\SRC\LIBBFIO\LIBBFIO_FILE.C
D:\PROJECT\SRC\MSVSCPP\LIBBFIO\RELEASE\VC120.PDB
^D:\PROJECT\SRC\LIBBFIO\LIBBFIO_FILE_POOL.C
D:\PROJECT\SRC\MSVSCPP\LIBBFIO\RELEASE\VC120.PDB
^D:\PROJECT\SRC\LIBBFIO\LIBBFIO_FILE_RANGE.C
D:\PROJECT\SRC\MSVSCPP\LIBBFIO\RELEASE\VC120.PDB
^D:\PROJECT\SRC\LIBBFIO\LIBBFIO_HANDLE.C
D:\PROJECT\SRC\MSVSCPP\LIBBFIO\RELEASE\VC120.PDB
^D:\PROJECT\SRC\LIBBFIO\LIBBFIO_MEMORY_RANGE.C
D:\PROJECT\SRC\MSVSCPP\LIBBFIO\RELEASE\VC120.PDB
^D:\PROJECT\SRC\LIBBFIO\LIBBFIO_POOL.C
D:\PROJECT\SRC\MSVSCPP\LIBBFIO\RELEASE\VC120.PDB
^D:\PROJECT\SRC\LIBBFIO\LIBBFIO_SUPPORT.C
D:\PROJECT\SRC\MSVSCPP\LIBBFIO\RELEASE\VC120.PDB
